{
    "html-title": "GDPR Complaint Generator",

    "twitter": {
        "desc": "A GDPR complaint generator against tracking embeds"
    },

    "common": {
        "and": "and",
        "to": "to",
        "or": "or"
    },

    "message-copied": "Message copied successfully."
}