{
    "title":"<b>Tracktor.it</b> is a\n GDPR complaint generator\n for a tracking-free internet.",
    "slogan": "Report websites with ad trackers easily & quickly</b> and thereby help make the internet <b>tracking-free for everyone</b>.",

    "counters": [
        { "label": "Cover Letter Generated", "count": 325 },
        { "label": "complaints filed", "count": 200 },
        { "label": "Web pages captured", "count": 105 },
        { "label": "Tracker in database", "count": 25 }
    ],

    "generate-complaint": "Generate complaint",
    "view-guide": "View guide",

    "simple-faq": [
        {
            "question": "What is tracking?",
            "answer": "Lorem ipsum dolor sit amet, consetetur sadipscing elitr, sed diam nonumy eirmod tempor invidunt ut labore et dolore magna aliquyam erat, sed diam voluptua. At vero eos et accusam et justo duo dolores et ea rebum. Stet clita kasd gubergren, no sea takimata sanctus est Lorem ipsum dolor sit amet. Lorem ipsum dolor sit amet, consetetur sadipscing elitr, sed diam nonumy eirmod tempor invidunt ut labore et dolore magna aliquyam erat, sed diam voluptua." 
        },
        {
            "question": "How does Tracktor.it work?",
            "answer": "Lorem ipsum dolor sit amet, consetetur sadipscing elitr, sed diam nonumy eirmod tempor invidunt ut labore et dolore magna aliquyam erat, sed diam voluptua. At vero eos et accusam et justo duo dolores et ea rebum. Stet clita kasd gubergren, no sea takimata sanctus est Lorem ipsum dolor sit amet. Lorem ipsum dolor sit amet, consetetur sadipscing elitr, sed diam nonumy eirmod tempor invidunt ut labore et dolore magna aliquyam erat, sed diam voluptua. At vero eos et accusam et justo duo dolores et ea rebum. Stet clita kasd gubergren, no sea takimata sanctus est Lorem ipsum dolor sit amet. \n\n Duis autem vel eum iriure dolor in hendrerit in vulputate velit esse molestie consequat, vel illum dolore eu feugiat nulla facilisis at vero eros et accumsan et iusto odio dignissim qui blandit praesent luptatum zzril delenit augue duis dolore te feugait nulla facilisi. Lorem ipsum dolor sit amet."
        }
    ]
}
