<?xml version="1.0" encoding="UTF-8" standalone="no"?>
<svg
   xmlns:dc="http://purl.org/dc/elements/1.1/"
   xmlns:cc="http://creativecommons.org/ns#"
   xmlns:rdf="http://www.w3.org/1999/02/22-rdf-syntax-ns#"
   xmlns:svg="http://www.w3.org/2000/svg"
   xmlns="http://www.w3.org/2000/svg"
   data-name="Layer 1"
   viewBox="0 0 128 128"
   x="0px"
   y="0px"
   version="1.1"
   id="svg1610"
   width="128"
   height="128">
  <metadata
     id="metadata1616">
    <rdf:RDF>
      <cc:Work
         rdf:about="">
        <dc:format>image/svg+xml</dc:format>
        <dc:type
           rdf:resource="http://purl.org/dc/dcmitype/StillImage" />
        <dc:title>Artboard 2</dc:title>
      </cc:Work>
    </rdf:RDF>
  </metadata>
  <defs
     id="defs1614" />
  <title
     id="title1598">Artboard 2</title>
  <g
     id="g1604">
    <line
       x1="64"
       y1="86.5"
       x2="109"
       y2="41.5"
       fill="none"
       stroke="#000000"
       stroke-linecap="square"
       stroke-miterlimit="10"
       stroke-width="14"
       id="line1600" />
    <line
       x1="64"
       y1="86.5"
       x2="19"
       y2="41.5"
       fill="none"
       stroke="#000000"
       stroke-linecap="square"
       stroke-miterlimit="10"
       stroke-width="14"
       id="line1602" />
  </g>
</svg>
