{
    "slug": "adition",
    "priority": 0,
    "name": "Adition (mit Cookie \"UserID1\")",
    "tracking-urls": ["adition.com"],
    "note": {
        "image": "/images/screenshots-tracker/adition_UserID1.png",
        "title": "UserID1-Cookie Screenshot",
        "text": "Einbettungen unter der URL \"adition.com\" sind ohne Einwilligung immer dann rechtswidrig, wenn das profilbildende Cookie \"UserID1\" geschrieben oder gelesen wird. Für die Beschwerde einen Beleg dieser Cookie-Übertragung anfügen, z.B. Screenshot oder HAR-Datei."
    },            
    "template": "Adition:\n Unter der Domain \"adition.com\" wurde eine Demand-Side-Plattform (DSP) eingebunden, die Werbekunden dabei unterstützt, ihre Werbung an eine konkrete Person auszuspielen, die nach Zielgruppenkriterien ausgewählt wurde. Dabei wurde eine eindeutige Kennziffer in dem Cookie \"UserID1\" gelesen und/oder geschrieben. Damit kann mein Verhalten auch auf anderen Seiten analysiert werden, um mich demographischen Kategorien (z.B. Alterskohorte) oder Interessenskategorie zuzuordnen. Das personalisierte Werbeprofil kann auch mit anderen Geräte, insbesondere meinem Mobilgerät verknüpft werden. Auch meine Interaktion mit Anzeigen wird in dem Profil gespeichert.\nhttps://www.adition.com/datenschutz-plattform/"
}

