{
    "slug": "adobe-experience-cloud",
    "name": "Adobe Experience Cloud",
    "priority": 40,
    "customInput": true,
    "search-by": ["mcorgid"],
    "note": {
        "image": "/images/screenshots-tracker/adobe_mcorgid.png",
        "title": "Beispiel für Adobe Experience Cloud",
        "text": "Dieser Tracker benötigt eine Zusatzinformation: Er wird oft in einer Subdomain der aufgerufenen Website installiert, z.B. 'irgendwas.example.com'. Man erkennt ihn dennoch leicht in der Netzwerkanalyse über den Parameter 'mcorgid' (damit wird die Account-Nummer des Seitenbetreibers übertragen). Bitte die URL des Aufrufs von diesem Parameter ins obige Feld eintragen, im Beispiel-Screenshot ist das 'atdt.douglas.de'."
    },   
    "template": "Adobe Experience Cloud\nUnter \"{custom-input-value}\" ist die Adobe Experience Cloud eingebunden. Sie bietet eine Sammlung von verschiedenen Trackingdiensten, die für die Analyse von Webseitenbesuchern, aber auch für Werbung, Marketing, Zielgruppenbildung und Handel von Zielgruppen genutzt werden können. Zentrales Element ist dabei das personenbezogene Tracking eines Besucher mit der ihm zugewiesenen Experience Cloud ID (ECID oder MID). Sie findet sich in einem mit 'MCMID' markierten Abschnitt auf einem Cookie mit dem Namensmuster AMCV_123456789@Adobe.org oder auf dem Cookie 's_ecid'. In den Request erscheint die ID unter dem Parameter 'mid'.\nhttps://docs.adobe.com/content/help/en/core-services/interface/ec-cookies/cookies-mc.html",
    "complaint-template": "Adobe Experience Cloud\nDer Seitenbetreiber bindet in seiner Seite unter \"{custom-input-value}\" die Adobe Experience Cloud ein. Sie bietet eine Sammlung von verschiedenen Trackingdiensten, die für die Analyse von Webseitenbesuchern, aber auch für Werbung, Marketing, Zielgruppenbildung und Handel von Zielgruppen genutzt werden können. In vielen Fällen wird die Experience Cloud in einer Subdomain des Seitenbetreiber versteckt, um Trackingblocker auszuhebeln (sogenanntes CNAME-Cloaking).\nhttps://docs.adobe.com/content/help/en/core-services/interface/ec-cookies/cookies-first-party.html\nZentrales Element der Lösung ist das personenbezogene Tracking eines Besucher mit der ihm zugewiesenen Experience Cloud ID (ECID oder MID). Sie findet sich in einem mit 'MCMID' markierten Abschnitt auf einem Cookie mit dem Namensmuster AMCV_123456789@Adobe.org oder dem Namen 's_ecid'. In den Request erscheint die ID unter dem Parameter 'mid'.\nhttps://docs.adobe.com/content/help/en/core-services/interface/ec-cookies/cookies-mc.html\nIch konnte beim Besuch der Seiten des Beschwerdegegners nicht damit rechnen, dass meine Seitenbesuche für profilbildende Analyse und Markforschung an Dritte weitergegeben und dort zentral gespeichert und ausgewertet werden. Das gilt umso mehr für Fälle, bei denen das Tracking mit CNAME-Cloaking versteckt wird, um Trackingblocker auszuhebeln."
}
