{
    "slug": "bazaarvoice",
    "name": "Bazaarvoice (mit Cookie \"BVID\")",
    "priority": 0,
    "tracking-urls": ["network-eu.bazaarvoice.com"],
    "note": {
        "image": "/images/screenshots-tracker/bvid_bazaarvoice.png",
        "title": "BVID-Cookie Screenshot",
        "text": "Bazaarvoice-Einbettungen sind ohne Einwilligung immer dann rechtswidrig, wenn das profilbildende Cookie \"BVID\" an Bazaarvoice übertragen wird. Für die Beschwerde einen Beleg dieser Cookie-Übertragung anfügen, z.B. Screenshot oder HAR-Datei"
    },            
    "template": "Bazaarvoice:\nDie Einbindung von diesem Drittanbieter vergibt über das Cookie \"BVID\" eine eindeutige, pseudonyme ID an den Besucher und erstellt ein Profil aus seinen Aktivitäten. Mit den Daten, die aus diesen Übertragungen gewonnen werden, werden Analysen erstellt, mit denen der Seitenbetreiber ein personalisiertes Angebot erstellen kann. Wenn der Besucher andere Seiten mit dieser Einbettung aufruft, kann die ID ebenfalls von Bazaarvoice gelesen werden und dem bereits erstellten Profil zugeordnet werden. Das Verhalten eines Besuchers kann damit auch seitenübergreifend in einem zentralen Profil gespeichert werden."
}
