{
    "slug": "google-advertising-features",
    "name": "Google Advertising Features",
    "priority": 60,
    "tracking-urls": [
        "stats.g.doubleclick.net"
    ],
    "template": "Google Advertising Features:\nAufrufe an stats.g.doubleclick.net zeigen im Normalfall an, dass Google Analytics in den Einstellungen um Werbefunktionen oder personalisierte Anzeigen erweitert wurde. So konnte mein Verhalten auf der Seite für personalisierte Werbung bzw. meine Interaktion mit Anzeigen ausgewertet werden. Diese Verbindung ist optional und könnte vom Seitenbetreiber deaktiviert werden. Unter der Domain doubleclick.net setzte Google in meinerm Browser das Cookie 'IDE', welches für personalisierte Werbung verwendet wird. Darüber hinaus enthalten die Aufrufe auch den Parameter 'cid' (selten auch: 'utmcc'), der der pseudonymen ID aus dem First-Party-Cookie 'ga' (selten auch: 'utma') entspricht. Das ga-Cookie wird von Google Analytics für die Profilbildung verwendet und zeichnet mein Nutzerverhalten standardmäßig mit einer Laufzeit von zwei Jahren auf.\nhttps://support.google.com/analytics/answer/9050852?hl=de"
}
