{
    "slug": "google-adsense",
    "name": "Google AdSense bzw. Google Ad Manager",
    "priority": 90,
    "tracking-urls": [
        "googleads.g.doubleclick.net/pagead",
        "googleads4.g.doubleclick.net/pagead",
        "securepubads.g.doubleclick.net/gampad"
    ],
    "search-by":[
        "googleads g.doubleclick.net/pagead",
        "securepubads.g.doubleclick.net/gampad"   
    ],    
    "note": {
        "image": "/images/screenshots-tracker/ide_cookie_google.png",
        "title": "IDE-Cookie Screenshot",
        "text": "Bitte unbedingt prüfen, dass das \"IDE\"-Cookie entweder gesetzt (Antwort-Cookie) oder gesendet (Anfrage-Cookie) wurde. Beides lässt sich in der Netzwerkanalyse des Browser leicht erkennen. Die ersten Requests an Doubleclick setzen oft nur ein Test-Cookie. Auf manchen Seiten erscheint das IDE-Cookie erst nach einigen Klicks durch die Seite. Für die Beschwerde einen Beleg dieser Cookie-Übertragung anfügen, z.B. Screenshot oder HAR-Datei."
    },
    "template": "Google AdSense bzw. Google Ad Manager:\nÜber die Domain doubleclick.net liefert Google in einem automatisierten Verfahren personalisierte Werbung aus. Das sogenannte Doubleclick-Cookie \"IDE\" wird durch die Domain doubleclick.net gesetzt oder (falls vorhanden) ausgelesen, so dass ein Websitebesucher seitenübergreifend und eindeutig wiedererkannt wird. Anzeigen können dadurch personalisiert ausgespielt und die Interaktion des Besuchers mit den Anzeigen registriert werden. Die Identifikation kann also einerseits auf der Website mit eingebundener Werbung erfolgen und andererseits auf der Seite, für die eine Anzeige geworben hat. Dabei können weitere Aktionen des Nutzers erfasst und ausgewertet werden (sogenanntes Conversion-Tracking).\nhttps://policies.google.com/technologies/types\nDie Daten werden mit weiteren Verhaltensdaten ergänzt, die Google beispielsweise aus dem Suchverhalten eines Nutzers bei Google oder seinem Verhalten in Apps erhält.\nhttps://support.google.com/adsense/answer/9007336\nFalls die Werbeplätze in Echtzeit versteigert werden, wird ebenfalls auf das Nutzerprofil zurückgegriffen, das mit dem Doubleclick-Cookie erstellt wurde. Teile davon werden dann auch anderen Werbepartnern zur Verfügung gestellt.\nhttps://developers.google.com/authorized-buyers/rtb/cookie-guide"
}
