{
    "slug": "google-analytics",
    "name": "Google Analytics (mit Cookie \"_ga\")",
    "priority": 100,
    "tracking-urls": [
        "google-analytics.com/v/collect",
        "google-analytics.com/j/collect",
        "google-analytics.com/r/collect",
        "google-analytics.com/__utm.gif",
        "google-analytics.com/r/__utm.gif"
    ],
    "search-by":[
		"google-analytics.com collect",
        "google-analytics.com utm.gif"     
    ],
    "note": {
        "image": "/images/screenshots-tracker/google_analytics_ga_cid.png",
        "title": "Google-Analytics-Cookie Screenshot",
        "text": "Google-Analytics-Einbettungen sind ohne Einwilligung immer dann rechtswidrig, wenn das profilbildende Cookie (meist \"_ga\", manchmal auch _utma) an Google übertragen wird. Dieses Cookie wird allerdings immer unter der First-Party-Domain (also unter der besuchten Seite) gespeichert und dann üblicherweise als Parameter 'cid' in den Aufrufen von Google Analytics übertragen. Für die Beschwerde einen Beleg des gespeicherten Cookies anfügen, z.B. Screenshot oder HAR-Datei."
    }, 
    "template": "Google Analytics:\nMit diesem Analysetool werden für einzelne Seitenaufrufe die URL (z.B. im Parameter \"dl\") und eine eindeutige, personenbeziehbare ID an Google übertragen (normalerweise als \"cid\", manchmal auch als \"_utma\"). Die ID wird auch in einem Cookie in meinem Browser gespeichert (normalerweise als \"_ga\", manchmal auch als \"utma\"), welches erst nach zwei Jahren abläuft. So kann man mich auf nachfolgenden Besuchen wiedererkennen und ein Profil über meine Besuche anlegen. Diese Daten werden von Google zur Finanzierung des kostenlosen Analysedienstes für eigene Zwecke verwendet, darunter auch personalisierte Werbung:\nhttps://policies.google.com/technologies/partner-sites?hl=de\nDer Bundesdatenschutzbeauftragte Ulrich Kelber und die Datenschutzkonferenz DSK haben ausdrücklich darauf hingewiesen, dass Google Analytics daher nur mit freiwilliger Einwilligung eingesetzt werden darf:\nhttps://www.bfdi.bund.de/DE/Infothek/Pressemitteilungen/2019/26_WebtrackingEinwilligung.html\nhttps://www.datenschutzkonferenz-online.de/media/dskb/20200526_beschluss_hinweise_zum_einsatz_von_google_analytics.pdf"
}
