{
    "slug": "vwo",
    "tracking-urls": ["kein Suchbegriff"],
    "name": "VWO (nur erkennbar am Cookie _vwo_uuid",
    "priority": 0,
    "note": {
        "image": "/images/screenshots-tracker/vwo_uuid.png",
        "title": "Screenshot eines VWO-Cookies",
        "text": "Dieser Tracker kann nicht mit einem Suchbegriff in der Netzwerkanalyse gefunden werden. Man erkennt nur das Cookie \"_vwo_uuid\" oder \"_vwo_uuid_v2\" im Tab \"Web-Speicher\". Das reicht als Beleg aus. "
    },            
    "template": "VWO:\nDiese Software bietet je nach Ausführung verschiedene Dienste für Seitenbetreiber an, mit denen sie das Verhalten der Besucher auf ihrer Seite profilbezogen erforschen können, um daraus Rückschlüsse für eine Verbesserung ihrer Website zu ziehen oder Marketingkampagnen daraus zu entwickeln. Dies kann auch die Analyse, die Aufzeichnung und die Wiedergabe von meinen Mausklicks und Scrollbewegungen umfassen. Um mein Verhalten persistent zur erfassen, wurde ein Cookie \"_vwo_uuid\" mit bis zu zehn Jahren Laufzeit in meinem Browser verarbeitet.\nhttps://help.vwo.com/hc/en-us/articles/360033990873-Cookies-Stored-by-VWO"
}
