{
    "slug": "webtrekk-mapp-cross-device-tracking",
    "name": "Webtrekk/Mapp Cross Device Tracking",
    "priority": 0,
    "tracking-urls": ["fbc.wcfbc.net"],
    "template": "Webtrekk/Mapp Cross Device Tracking:\nMit der Einbindung \"fbc.wcfbc.net\" kann der Analysedienst Webtrekk des Herstellers Mapp einen Nutzer konsistenter erkennen, auch wenn er nicht oder nur mit einem anderen Gerät eingeloggt ist. Dies wird dadurch erreicht, dass zahlreiche Websites eine einheitliche ID (cdbeid) eines Besuchers an den Analysedienst melden beziehungsweise abrufen.\nhttps://docs.mapp.com/pages/viewpage.action?pageId=5374214\nDie ID wird an das Login des Nutzers gebunden. Durch den zentralen Austausch dieser ID (über Cookies oder E-Tags) wird die Wahrscheinlichkeit erhöht, dass ein Nutzer unter seiner Webtrekk-ID erkannt wird, obwohl er nicht eingeloggt ist.\nZahlreiche Vorgaben der DSGVO werden damit gebrochen: Dieses seitenübergreifende Tracking ist für den Nutzer nicht erwartbar. Der Analysedienst ist kein Auftragsverarbeiter mehr, weil er die Information des Logins für andere Kunden nutzt."
}
